{
    "app-id" : "eu.lyes.Sharit",
    "runtime" : "org.gnome.Platform",
    "runtime-version" : "master",
    "sdk" : "org.gnome.Sdk",
    "sdk-extensions" : [
        "org.freedesktop.Sdk.Extension.rust-stable"
    ],
    "command" : "sharit",
    "finish-args" : [
        "--share=network",
        "--share=ipc",
        "--socket=fallback-x11",
        "--socket=wayland"
    ],
    "build-options" : {
        "append-path" : "/usr/lib/sdk/rust-stable/bin",
        "build-args" : [
            "--share=network"
        ],
        "env" : {
            "CARGO_HOME" : "/run/build/sharit/cargo",
            "RUST_BACKTRACE" : "1",
            "RUST_LOG" : "sharit=debug"
        }
    },
    "cleanup" : [
        "/include",
        "/lib/pkgconfig",
        "/man",
        "/share/doc",
        "/share/gtk-doc",
        "/share/man",
        "/share/pkgconfig",
        "*.la",
        "*.a"
    ],
    "modules" : [
        {
            "name" : "libadwaita",
            "buildsystem" : "meson",
            "config-opts" : [
                "-Dintrospection=enabled",
                "-Dtests=false",
                "-Dexamples=false",
                "-Dvapi=false",
                "-Dglade_catalog=disabled"
            ],
            "cleanup" : [
                "/include",
                "/lib/pkgconfig"
            ],
            "sources" : [
                {
                    "type" : "git",
                    "url" : "https://gitlab.gnome.org/GNOME/libadwaita/"
                }
            ]
        },
        {
            "name": "youtube-dl",
            "buildsystem": "simple",
            "ensure-writable": ["/lib/python*/site-packages/easy-install.pth"],
            "build-commands": [
                "python3 setup.py build",
                "python3 setup.py install --prefix=/app"
            ],
            "sources": [
                {
                    "type": "archive",
                    "url": "https://files.pythonhosted.org/packages/ac/23/35115dffcaa896b75a3a857fb8949cef870e168447b6452b9f8443750454/youtube_dl-2020.12.22.tar.gz",
                    "sha256": "fc5368f34e6db3ebeda6071e65eff9490a01722537626f535b7b7b302148b999"
                }
            ]
        },
        {
            "name" : "gstreamer",
            "buildsystem" : "meson",
            "config-opts" : [
                "-Dexamples=disabled",
                "-Dtests=disabled",
                "-Ddoc=disabled"
            ],
            "sources" : [
                {
                    "type" : "git",
                    "branch" : "1.18",
                    "url" : "https://gitlab.freedesktop.org/gstreamer/gstreamer.git"
                }
            ]
        },
        {
            "name" : "gst-plugins-base",
            "buildsystem" : "meson",
            "config-opts" : [
                "-Ddoc=disabled",
                "-Dexamples=disabled",
                "-Dtests=disabled",
                "-Dorc=enabled",
                "--wrap-mode=nodownload"
            ],
            "sources" : [
                {
                    "type" : "git",
                    "branch" : "1.18",
                    "url" : "https://gitlab.freedesktop.org/gstreamer/gst-plugins-base.git"
                }
            ]
        },
        {
            "name" : "gst-plugins-good",
            "buildsystem" : "meson",
            "config-opts" : [
                "-Dgtk3=disabled",
                "-Dgtk4=enabled",
                "-Dgtk4-experiments=true",
                "-Ddoc=disabled",
                "-Dexamples=disabled",
                "-Dtests=disabled"
            ],
            "sources" : [
                {
                    "type" : "git",
                    "branch" : "1.18",
                    "url" : "https://gitlab.freedesktop.org/gstreamer/gst-plugins-good.git"
                },
                {
                    "type" : "patch",
                    "path" : "767.patch"
                }
            ]
	    },
        {
            "name" : "gst-bad-plugins",
            "buildsystem": "meson",
            "config-opts" : [
            	"-Drsvg=disabled",
            	"-Dvulkan=disabled",
            	"-Dexamples=disabled",
            	"-Dtests=disabled",
            	"-Dintrospection=disabled"
            ],
            "sources" : [
                {
                    "type" : "git",
                    "url" : "https://gitlab.freedesktop.org/gstreamer/gst-plugins-bad.git",
                    "branch" : "1.18"
                }
            ]
        },
        {
            "name" : "sharit",
            "builddir" : true,
            "buildsystem" : "meson",
            "sources" : [
                {
                    "type" : "git",
                    "url" : "file:///home/lyes/Documents/rust/sharit"
                }
            ]
        }
    ]
}
